175 000€ sur 25 ans avec TI à 1.27% et TA à 0.7% 

Question 1 : 783
Question 2 : 102
Question 3 : 59966
Question 4 : 30625
Question 5 : 93960

200 000€ sur 15 ans avec TI à 0.73% et TA à 0.4%

Question 6 : 1240
Question 7 : 67
Question 8 : 23211
Question 9 : 12000
Question 10 : 148800